<?xml version="1.0" encoding="UTF-8" standalone="no"?>
<svg width="27px" height="16px" viewBox="0 0 27 16" version="1.1" xmlns="http://www.w3.org/2000/svg" xmlns:xlink="http://www.w3.org/1999/xlink">
    <!-- Generator: Sketch 41.2 (35397) - http://www.bohemiancoding.com/sketch -->
    <title>flecha-scrolldown</title>
    <desc>Created with Sketch.</desc>
    <defs></defs>
    <g id="Page-1" stroke="none" stroke-width="1" fill="none" fill-rule="evenodd" stroke-linecap="round">
        <g id="minisite-3" transform="translate(-707.000000, -1256.000000)" stroke-width="2" stroke="#FFFFFF">
            <g id="Imported-Layers-+-Imported-Layers" transform="translate(691.000000, 1230.000000)">
                <g id="Imported-Layers" transform="translate(0.000000, 0.500000)">
                    <polyline id="flecha-scrolldown" points="41.7051667 27.2715 29.6730833 39.6575714 17.6465833 27.2715"></polyline>
                </g>
            </g>
        </g>
    </g>
</svg>